(Exported by FreeCAD)
(Post Processor: grbl_post)
(Output Time:2020-06-12 13:12:50.263923)
(begin preamble)
G17 G90
G21
(begin operation: T1: endmill_3mm)
(Path: T1: endmill_3mm)
(T1: endmill_3mm)
(begin toolchange)
; M6 T1
M3 S0.0000
(finish operation: T1: endmill_3mm)
(begin operation: Pocket_wheels_holes)
(Path: Pocket_wheels_holes)
(Pocket_wheels_holes)
G0 Z5.0000
G0 X14.2031 Y-12.2969
G0 Z3.0000
G1 X14.2031 Y-12.2969 Z-3.0000 F30.00
G2 X13.5000 Y-13.9943 Z-3.0000 I-0.7031 J-0.7031 F30.00
G2 X13.5000 Y-12.0057 Z-3.0000 I0.0000 J0.9943 F30.00
G2 X14.2031 Y-12.2969 Z-3.0000 I0.0000 J-0.9943 F30.00
G1 X14.2031 Y-12.2969 Z-6.0000 F30.00
G2 X13.5000 Y-13.9943 Z-6.0000 I-0.7031 J-0.7031 F30.00
G2 X13.5000 Y-12.0057 Z-6.0000 I0.0000 J0.9943 F30.00
G2 X14.2031 Y-12.2969 Z-6.0000 I0.0000 J-0.9943 F30.00
G1 X14.2031 Y-12.2969 Z-8.0000 F30.00
G2 X13.5000 Y-13.9943 Z-8.0000 I-0.7031 J-0.7031 F30.00
G2 X13.5000 Y-12.0057 Z-8.0000 I0.0000 J0.9943 F30.00
G2 X14.2031 Y-12.2969 Z-8.0000 I0.0000 J-0.9943 F30.00
G0 Z5.0000
G0 X85.7031 Y-12.2969
G0 Z3.0000
G1 X85.7031 Y-12.2969 Z-3.0000 F30.00
G2 X85.0000 Y-13.9943 Z-3.0000 I-0.7031 J-0.7031 F30.00
G2 X85.0000 Y-12.0057 Z-3.0000 I0.0000 J0.9943 F30.00
G2 X85.7031 Y-12.2969 Z-3.0000 I0.0000 J-0.9943 F30.00
G1 X85.7031 Y-12.2969 Z-6.0000 F30.00
G2 X85.0000 Y-13.9943 Z-6.0000 I-0.7031 J-0.7031 F30.00
G2 X85.0000 Y-12.0057 Z-6.0000 I0.0000 J0.9943 F30.00
G2 X85.7031 Y-12.2969 Z-6.0000 I0.0000 J-0.9943 F30.00
G1 X85.7031 Y-12.2969 Z-8.0000 F30.00
G2 X85.0000 Y-13.9943 Z-8.0000 I-0.7031 J-0.7031 F30.00
G2 X85.0000 Y-12.0057 Z-8.0000 I0.0000 J0.9943 F30.00
G2 X85.7031 Y-12.2969 Z-8.0000 I0.0000 J-0.9943 F30.00
G0 Z5.0000
G0 X157.2031 Y-12.2969
G0 Z3.0000
G1 X157.2031 Y-12.2969 Z-3.0000 F30.00
G2 X156.5000 Y-13.9943 Z-3.0000 I-0.7031 J-0.7031 F30.00
G2 X156.5000 Y-12.0057 Z-3.0000 I0.0000 J0.9943 F30.00
G2 X157.2031 Y-12.2969 Z-3.0000 I0.0000 J-0.9943 F30.00
G1 X157.2031 Y-12.2969 Z-6.0000 F30.00
G2 X156.5000 Y-13.9943 Z-6.0000 I-0.7031 J-0.7031 F30.00
G2 X156.5000 Y-12.0057 Z-6.0000 I0.0000 J0.9943 F30.00
G2 X157.2031 Y-12.2969 Z-6.0000 I0.0000 J-0.9943 F30.00
G1 X157.2031 Y-12.2969 Z-8.0000 F30.00
G2 X156.5000 Y-13.9943 Z-8.0000 I-0.7031 J-0.7031 F30.00
G2 X156.5000 Y-12.0057 Z-8.0000 I0.0000 J0.9943 F30.00
G2 X157.2031 Y-12.2969 Z-8.0000 I0.0000 J-0.9943 F30.00
G0 Z5.0000
G0 X157.9112 Y-111.5888
G0 Z3.0000
G1 X157.9112 Y-111.5888 Z-3.0000 F30.00
G2 X156.6491 Y-114.9902 Z-3.0000 I-1.4112 J-1.4112 F30.00
G2 X154.5098 Y-113.1491 Z-3.0000 I-0.1491 J1.9902 F30.00
G2 X156.3509 Y-111.0098 Z-3.0000 I1.9902 J0.1491 F30.00
G2 X157.9112 Y-111.5888 Z-3.0000 I0.1491 J-1.9902 F30.00
G1 X157.9112 Y-111.5888 Z-6.0000 F30.00
G2 X156.6491 Y-114.9902 Z-6.0000 I-1.4112 J-1.4112 F30.00
G2 X154.5098 Y-113.1491 Z-6.0000 I-0.1491 J1.9902 F30.00
G2 X156.3509 Y-111.0098 Z-6.0000 I1.9902 J0.1491 F30.00
G2 X157.9112 Y-111.5888 Z-6.0000 I0.1491 J-1.9902 F30.00
G1 X157.9112 Y-111.5888 Z-8.0000 F30.00
G2 X156.6491 Y-114.9902 Z-8.0000 I-1.4112 J-1.4112 F30.00
G2 X154.5098 Y-113.1491 Z-8.0000 I-0.1491 J1.9902 F30.00
G2 X156.3509 Y-111.0098 Z-8.0000 I1.9902 J0.1491 F30.00
G2 X157.9112 Y-111.5888 Z-8.0000 I0.1491 J-1.9902 F30.00
G0 Z5.0000
G0 X86.4112 Y-111.5888
G0 Z3.0000
G1 X86.4112 Y-111.5888 Z-3.0000 F30.00
G2 X85.1491 Y-114.9902 Z-3.0000 I-1.4112 J-1.4112 F30.00
G2 X83.0098 Y-113.1491 Z-3.0000 I-0.1491 J1.9902 F30.00
G2 X84.8509 Y-111.0098 Z-3.0000 I1.9902 J0.1491 F30.00
G2 X86.4112 Y-111.5888 Z-3.0000 I0.1491 J-1.9902 F30.00
G1 X86.4112 Y-111.5888 Z-6.0000 F30.00
G2 X85.1491 Y-114.9902 Z-6.0000 I-1.4112 J-1.4112 F30.00
G2 X83.0098 Y-113.1491 Z-6.0000 I-0.1491 J1.9902 F30.00
G2 X84.8509 Y-111.0098 Z-6.0000 I1.9902 J0.1491 F30.00
G2 X86.4112 Y-111.5888 Z-6.0000 I0.1491 J-1.9902 F30.00
G1 X86.4112 Y-111.5888 Z-8.0000 F30.00
G2 X85.1491 Y-114.9902 Z-8.0000 I-1.4112 J-1.4112 F30.00
G2 X83.0098 Y-113.1491 Z-8.0000 I-0.1491 J1.9902 F30.00
G2 X84.8509 Y-111.0098 Z-8.0000 I1.9902 J0.1491 F30.00
G2 X86.4112 Y-111.5888 Z-8.0000 I0.1491 J-1.9902 F30.00
G0 Z5.0000
G0 X14.9112 Y-111.5888
G0 Z3.0000
G1 X14.9112 Y-111.5888 Z-3.0000 F30.00
G2 X13.6491 Y-114.9902 Z-3.0000 I-1.4112 J-1.4112 F30.00
G2 X11.5098 Y-113.1491 Z-3.0000 I-0.1491 J1.9902 F30.00
G2 X13.3509 Y-111.0098 Z-3.0000 I1.9902 J0.1491 F30.00
G2 X14.9112 Y-111.5888 Z-3.0000 I0.1491 J-1.9902 F30.00
G1 X14.9112 Y-111.5888 Z-6.0000 F30.00
G2 X13.6491 Y-114.9902 Z-6.0000 I-1.4112 J-1.4112 F30.00
G2 X11.5098 Y-113.1491 Z-6.0000 I-0.1491 J1.9902 F30.00
G2 X13.3509 Y-111.0098 Z-6.0000 I1.9902 J0.1491 F30.00
G2 X14.9112 Y-111.5888 Z-6.0000 I0.1491 J-1.9902 F30.00
G1 X14.9112 Y-111.5888 Z-8.0000 F30.00
G2 X13.6491 Y-114.9902 Z-8.0000 I-1.4112 J-1.4112 F30.00
G2 X11.5098 Y-113.1491 Z-8.0000 I-0.1491 J1.9902 F30.00
G2 X13.3509 Y-111.0098 Z-8.0000 I1.9902 J0.1491 F30.00
G2 X14.9112 Y-111.5888 Z-8.0000 I0.1491 J-1.9902 F30.00
G0 Z5.0000
(finish operation: Pocket_wheels_holes)
(begin operation: Pocket_Verzink_holes)
(Path: Pocket_Verzink_holes)
(Pocket_Verzink_holes)
G0 Z5.0000
G0 X15.9738 Y-10.5267
G0 Z3.0000
G1 X15.9738 Y-10.5267 Z-3.0000 F30.00
G2 X13.1171 Y-16.4699 Z-3.0000 I-2.4703 J-2.4708 F30.00
G1 X13.4715 Y-13.4909 Z-3.0000 F30.00
G3 X13.5308 Y-12.5099 Z-3.0000 I0.0282 J0.4906 F30.00
G3 X13.0091 Y-12.9706 Z-3.0000 I-0.0312 J-0.4904 F30.00
G3 X13.4715 Y-13.4909 Z-3.0000 I0.4905 J-0.0297 F30.00
G1 X13.1171 Y-16.4699 Z-3.0000 F30.00
G2 X12.4676 Y-16.3414 Z-3.0000 I0.2045 J2.7386 F30.00
G2 X14.1553 Y-9.5649 Z-3.0000 I1.0322 J3.3413 F30.00
G2 X15.9738 Y-10.5267 Z-3.0000 I-0.6518 J-3.4326 F30.00
G0 Z5.0000
G0 X87.4737 Y-10.5263
G0 Z3.0000
G1 X87.4737 Y-10.5263 Z-3.0000 F30.00
G3 X85.2196 Y-9.5099 Z-3.0000 I-2.4702 J-2.4704 F30.00
G3 X84.7804 Y-16.4901 Z-3.0000 I-0.2196 J-3.4901 F30.00
G1 X84.9692 Y-16.4901 Z-3.0000 F30.00
G1 X84.9692 Y-13.4901 Z-3.0000 F30.00
G1 X84.9692 Y-16.4901 Z-3.0000 F30.00
G3 X87.4737 Y-10.5263 Z-3.0000 I0.0343 J3.4934 F30.00
G0 X87.4737 Y-10.5263 Z5.0000
G0 X85.3473 Y-12.6527 Z5.0000
G0 X85.3473 Y-12.6527 Z0.0000
G1 X85.3473 Y-12.6527 Z-3.0000 F30.00
G2 X84.9692 Y-13.4901 Z-3.0000 I-0.3473 J-0.3473 F30.00
G2 X85.0308 Y-12.5099 Z-3.0000 I0.0308 J0.4901 F30.00
G2 X84.9692 Y-13.4901 Z-3.0000 I-0.0308 J-0.4901 F30.00
G2 X85.0308 Y-12.5099 Z-3.0000 I0.0308 J0.4901 F30.00
G2 X85.3473 Y-12.6527 Z-3.0000 I-0.0308 J-0.4901 F30.00
G0 Z5.0000
G0 X158.9737 Y-10.5263
G0 Z3.0000
G1 X158.9737 Y-10.5263 Z-3.0000 F30.00
G3 X156.7196 Y-9.5099 Z-3.0000 I-2.4702 J-2.4704 F30.00
G3 X153.0099 Y-12.7804 Z-3.0000 I-0.2196 J-3.4901 F30.00
G3 X156.2804 Y-16.4901 Z-3.0000 I3.4901 J-0.2196 F30.00
G1 X156.4692 Y-16.4901 Z-3.0000 F30.00
G1 X156.4692 Y-13.4901 Z-3.0000 F30.00
G1 X156.4692 Y-16.4901 Z-3.0000 F30.00
G3 X158.9737 Y-10.5263 Z-3.0000 I0.0343 J3.4934 F30.00
G0 X158.9737 Y-10.5263 Z5.0000
G0 X156.8473 Y-12.6527 Z5.0000
G0 X156.8473 Y-12.6527 Z0.0000
G1 X156.8473 Y-12.6527 Z-3.0000 F30.00
G2 X156.4692 Y-13.4901 Z-3.0000 I-0.3473 J-0.3473 F30.00
G2 X156.0099 Y-12.9692 Z-3.0000 I0.0308 J0.4901 F30.00
G2 X156.5308 Y-12.5099 Z-3.0000 I0.4901 J-0.0308 F30.00
G2 X156.4692 Y-13.4901 Z-3.0000 I-0.0308 J-0.4901 F30.00
G2 X156.0099 Y-12.9692 Z-3.0000 I0.0308 J0.4901 F30.00
G2 X156.5308 Y-12.5099 Z-3.0000 I0.4901 J-0.0308 F30.00
G2 X156.8473 Y-12.6527 Z-3.0000 I-0.0308 J-0.4901 F30.00
G0 Z5.0000
G0 X158.9673 Y-110.5260
G0 Z3.0000
G1 X158.9673 Y-110.5260 Z-3.0000 F30.00
G2 X159.9813 Y-113.2499 Z-3.0000 I-2.4703 J-2.4703 F30.00
G1 X156.9872 Y-113.0616 Z-3.0000 F30.00
G1 X159.9813 Y-113.2499 Z-3.0000 F30.00
G1 X159.9695 Y-113.4383 Z-3.0000 F30.00
G2 X153.0305 Y-112.5617 Z-3.0000 I-3.4695 J0.4383 F30.00
G2 X158.9673 Y-110.5260 Z-3.0000 I3.4664 J-0.4346 F30.00
G0 X158.9673 Y-110.5260 Z5.0000
G0 X156.8468 Y-112.6523 Z5.0000
G0 X156.8468 Y-112.6523 Z0.0000
G1 X156.8468 Y-112.6523 Z-3.0000 F30.00
G2 X156.9872 Y-113.0616 Z-3.0000 I-0.3468 J-0.3477 F30.00
G2 X156.4384 Y-113.4872 Z-3.0000 I-0.4872 J0.0616 F30.00
G2 X156.0128 Y-112.9384 Z-3.0000 I0.0616 J0.4872 F30.00
G2 X156.5616 Y-112.5128 Z-3.0000 I0.4872 J-0.0616 F30.00
G2 X156.9872 Y-113.0616 Z-3.0000 I-0.0616 J-0.4872 F30.00
G2 X156.4384 Y-113.4872 Z-3.0000 I-0.4872 J0.0616 F30.00
G2 X156.0128 Y-112.9384 Z-3.0000 I0.0616 J0.4872 F30.00
G2 X156.8468 Y-112.6523 Z-3.0000 I0.4872 J-0.0616 F30.00
G0 Z5.0000
G0 X87.4673 Y-110.5260
G0 Z3.0000
G1 X87.4673 Y-110.5260 Z-3.0000 F30.00
G2 X88.4813 Y-113.2499 Z-3.0000 I-2.4703 J-2.4703 F30.00
G1 X85.4872 Y-113.0616 Z-3.0000 F30.00
G3 X84.5161 Y-112.9125 Z-3.0000 I-0.4876 J0.0612 F30.00
G3 X85.4757 Y-113.1221 Z-3.0000 I0.4835 J-0.0878 F30.00
G3 X84.5301 Y-112.8548 Z-3.0000 I-0.4761 J0.1219 F30.00
G3 X85.4566 Y-113.1808 Z-3.0000 I0.4694 J-0.1454 F30.00
G3 X85.4872 Y-113.0616 Z-3.0000 I-0.4566 J0.1808 F30.00
G1 X88.4813 Y-113.2499 Z-3.0000 F30.00
G2 X88.3872 Y-113.8697 Z-3.0000 I-2.5000 J0.0627 F30.00
G2 X81.5585 Y-112.3779 Z-3.0000 I-3.3873 J0.8696 F30.00
G2 X87.4673 Y-110.5260 Z-3.0000 I3.4384 J-0.6184 F30.00
G0 Z5.0000
G0 X15.9738 Y-110.5267
G0 Z3.0000
G1 X15.9738 Y-110.5267 Z-3.0000 F30.00
G2 X13.0581 Y-116.4629 Z-3.0000 I-2.4704 J-2.4708 F30.00
G1 X13.4125 Y-113.4839 Z-3.0000 F30.00
G3 X13.5920 Y-112.5176 Z-3.0000 I0.0871 J0.4837 F30.00
G3 X13.3548 Y-113.4699 Z-3.0000 I-0.0924 J-0.4826 F30.00
G3 X13.6518 Y-112.5329 Z-3.0000 I0.1448 J0.4696 F30.00
G3 X13.2993 Y-113.4489 Z-3.0000 I-0.1522 J-0.4673 F30.00
G3 X13.4125 Y-113.4839 Z-3.0000 I0.2007 J0.4489 F30.00
G1 X13.0581 Y-116.4629 Z-3.0000 F30.00
G2 X12.4676 Y-116.3414 Z-3.0000 I0.2051 J2.4923 F30.00
G2 X14.1553 Y-109.5649 Z-3.0000 I1.0322 J3.3413 F30.00
G2 X15.9738 Y-110.5267 Z-3.0000 I-0.6518 J-3.4326 F30.00
G0 Z5.0000
(finish operation: Pocket_Verzink_holes)
(begin operation: Pocket_wasteboard_mount_holes)
(Path: Pocket_wasteboard_mount_holes)
(Pocket_wasteboard_mount_holes)
G0 Z5.0000
G0 X156.8484 Y-74.6516
G0 Z3.0000
G1 X156.8484 Y-74.6516 Z-3.0000 F30.00
G2 X156.5000 Y-75.4927 Z-3.0000 I-0.3484 J-0.3484 F30.00
G2 X156.5000 Y-74.5073 Z-3.0000 I0.0000 J0.4927 F30.00
G2 X156.8484 Y-74.6516 Z-3.0000 I0.0000 J-0.4927 F30.00
G1 X156.8484 Y-74.6516 Z-6.0000 F30.00
G2 X156.5000 Y-75.4927 Z-6.0000 I-0.3484 J-0.3484 F30.00
G2 X156.5000 Y-74.5073 Z-6.0000 I0.0000 J0.4927 F30.00
G2 X156.8484 Y-74.6516 Z-6.0000 I0.0000 J-0.4927 F30.00
G1 X156.8484 Y-74.6516 Z-8.0000 F30.00
G2 X156.5000 Y-75.4927 Z-8.0000 I-0.3484 J-0.3484 F30.00
G2 X156.5000 Y-74.5073 Z-8.0000 I0.0000 J0.4927 F30.00
G2 X156.8484 Y-74.6516 Z-8.0000 I0.0000 J-0.4927 F30.00
G0 Z5.0000
G0 X95.3484 Y-72.6516
G0 Z3.0000
G1 X95.3484 Y-72.6516 Z-3.0000 F30.00
G2 X95.0000 Y-73.4927 Z-3.0000 I-0.3484 J-0.3484 F30.00
G2 X95.0000 Y-72.5073 Z-3.0000 I0.0000 J0.4927 F30.00
G2 X95.3484 Y-72.6516 Z-3.0000 I0.0000 J-0.4927 F30.00
G1 X95.3484 Y-72.6516 Z-6.0000 F30.00
G2 X95.0000 Y-73.4927 Z-6.0000 I-0.3484 J-0.3484 F30.00
G2 X95.0000 Y-72.5073 Z-6.0000 I0.0000 J0.4927 F30.00
G2 X95.3484 Y-72.6516 Z-6.0000 I0.0000 J-0.4927 F30.00
G1 X95.3484 Y-72.6516 Z-8.0000 F30.00
G2 X95.0000 Y-73.4927 Z-8.0000 I-0.3484 J-0.3484 F30.00
G2 X95.0000 Y-72.5073 Z-8.0000 I0.0000 J0.4927 F30.00
G2 X95.3484 Y-72.6516 Z-8.0000 I0.0000 J-0.4927 F30.00
G0 Z5.0000
G0 X95.3484 Y-52.6516
G0 Z3.0000
G1 X95.3484 Y-52.6516 Z-3.0000 F30.00
G2 X95.0000 Y-53.4927 Z-3.0000 I-0.3484 J-0.3484 F30.00
G2 X94.5073 Y-53.0000 Z-3.0000 I-0.0000 J0.4927 F30.00
G2 X95.0000 Y-52.5073 Z-3.0000 I0.4927 J0.0000 F30.00
G2 X95.3484 Y-52.6516 Z-3.0000 I0.0000 J-0.4927 F30.00
G1 X95.3484 Y-52.6516 Z-6.0000 F30.00
G2 X95.0000 Y-53.4927 Z-6.0000 I-0.3484 J-0.3484 F30.00
G2 X94.5073 Y-53.0000 Z-6.0000 I-0.0000 J0.4927 F30.00
G2 X95.0000 Y-52.5073 Z-6.0000 I0.4927 J0.0000 F30.00
G2 X95.3484 Y-52.6516 Z-6.0000 I0.0000 J-0.4927 F30.00
G1 X95.3484 Y-52.6516 Z-8.0000 F30.00
G2 X95.0000 Y-53.4927 Z-8.0000 I-0.3484 J-0.3484 F30.00
G2 X94.5073 Y-53.0000 Z-8.0000 I-0.0000 J0.4927 F30.00
G2 X95.0000 Y-52.5073 Z-8.0000 I0.4927 J0.0000 F30.00
G2 X95.3484 Y-52.6516 Z-8.0000 I0.0000 J-0.4927 F30.00
G0 Z5.0000
G0 X75.3484 Y-52.6516
G0 Z3.0000
G1 X75.3484 Y-52.6516 Z-3.0000 F30.00
G2 X75.0000 Y-53.4927 Z-3.0000 I-0.3484 J-0.3484 F30.00
G2 X75.0000 Y-52.5073 Z-3.0000 I0.0000 J0.4927 F30.00
G2 X75.3484 Y-52.6516 Z-3.0000 I0.0000 J-0.4927 F30.00
G1 X75.3484 Y-52.6516 Z-6.0000 F30.00
G2 X75.0000 Y-53.4927 Z-6.0000 I-0.3484 J-0.3484 F30.00
G2 X75.0000 Y-52.5073 Z-6.0000 I0.0000 J0.4927 F30.00
G2 X75.3484 Y-52.6516 Z-6.0000 I0.0000 J-0.4927 F30.00
G1 X75.3484 Y-52.6516 Z-8.0000 F30.00
G2 X75.0000 Y-53.4927 Z-8.0000 I-0.3484 J-0.3484 F30.00
G2 X75.0000 Y-52.5073 Z-8.0000 I0.0000 J0.4927 F30.00
G2 X75.3484 Y-52.6516 Z-8.0000 I0.0000 J-0.4927 F30.00
G0 Z5.0000
G0 X75.3484 Y-72.6516
G0 Z3.0000
G1 X75.3484 Y-72.6516 Z-3.0000 F30.00
G2 X75.0000 Y-73.4927 Z-3.0000 I-0.3484 J-0.3484 F30.00
G2 X75.0000 Y-72.5073 Z-3.0000 I0.0000 J0.4927 F30.00
G2 X75.3484 Y-72.6516 Z-3.0000 I-0.0000 J-0.4927 F30.00
G1 X75.3484 Y-72.6516 Z-6.0000 F30.00
G2 X75.0000 Y-73.4927 Z-6.0000 I-0.3484 J-0.3484 F30.00
G2 X75.0000 Y-72.5073 Z-6.0000 I0.0000 J0.4927 F30.00
G2 X75.3484 Y-72.6516 Z-6.0000 I-0.0000 J-0.4927 F30.00
G1 X75.3484 Y-72.6516 Z-8.0000 F30.00
G2 X75.0000 Y-73.4927 Z-8.0000 I-0.3484 J-0.3484 F30.00
G2 X75.0000 Y-72.5073 Z-8.0000 I0.0000 J0.4927 F30.00
G2 X75.3484 Y-72.6516 Z-8.0000 I-0.0000 J-0.4927 F30.00
G0 Z5.0000
G0 X85.3484 Y-74.6516
G0 Z3.0000
G1 X85.3484 Y-74.6516 Z-3.0000 F30.00
G2 X85.0000 Y-75.4927 Z-3.0000 I-0.3484 J-0.3484 F30.00
G2 X85.0000 Y-74.5073 Z-3.0000 I0.0000 J0.4927 F30.00
G2 X85.3484 Y-74.6516 Z-3.0000 I0.0000 J-0.4927 F30.00
G1 X85.3484 Y-74.6516 Z-6.0000 F30.00
G2 X85.0000 Y-75.4927 Z-6.0000 I-0.3484 J-0.3484 F30.00
G2 X85.0000 Y-74.5073 Z-6.0000 I0.0000 J0.4927 F30.00
G2 X85.3484 Y-74.6516 Z-6.0000 I0.0000 J-0.4927 F30.00
G1 X85.3484 Y-74.6516 Z-8.0000 F30.00
G2 X85.0000 Y-75.4927 Z-8.0000 I-0.3484 J-0.3484 F30.00
G2 X85.0000 Y-74.5073 Z-8.0000 I0.0000 J0.4927 F30.00
G2 X85.3484 Y-74.6516 Z-8.0000 I0.0000 J-0.4927 F30.00
G0 Z5.0000
G0 X13.8484 Y-74.6516
G0 Z3.0000
G1 X13.8484 Y-74.6516 Z-3.0000 F30.00
G2 X13.5000 Y-75.4927 Z-3.0000 I-0.3484 J-0.3484 F30.00
G2 X13.5000 Y-74.5073 Z-3.0000 I0.0000 J0.4927 F30.00
G2 X13.8484 Y-74.6516 Z-3.0000 I0.0000 J-0.4927 F30.00
G1 X13.8484 Y-74.6516 Z-6.0000 F30.00
G2 X13.5000 Y-75.4927 Z-6.0000 I-0.3484 J-0.3484 F30.00
G2 X13.5000 Y-74.5073 Z-6.0000 I0.0000 J0.4927 F30.00
G2 X13.8484 Y-74.6516 Z-6.0000 I0.0000 J-0.4927 F30.00
G1 X13.8484 Y-74.6516 Z-8.0000 F30.00
G2 X13.5000 Y-75.4927 Z-8.0000 I-0.3484 J-0.3484 F30.00
G2 X13.5000 Y-74.5073 Z-8.0000 I0.0000 J0.4927 F30.00
G2 X13.8484 Y-74.6516 Z-8.0000 I0.0000 J-0.4927 F30.00
G0 Z5.0000
G0 X30.3484 Y-12.6516
G0 Z3.0000
G1 X30.3484 Y-12.6516 Z-3.0000 F30.00
G2 X30.0000 Y-13.4927 Z-3.0000 I-0.3484 J-0.3484 F30.00
G2 X29.5073 Y-13.0000 Z-3.0000 I-0.0000 J0.4927 F30.00
G2 X30.0000 Y-12.5073 Z-3.0000 I0.4927 J0.0000 F30.00
G2 X30.3484 Y-12.6516 Z-3.0000 I0.0000 J-0.4927 F30.00
G1 X30.3484 Y-12.6516 Z-6.0000 F30.00
G2 X30.0000 Y-13.4927 Z-6.0000 I-0.3484 J-0.3484 F30.00
G2 X29.5073 Y-13.0000 Z-6.0000 I-0.0000 J0.4927 F30.00
G2 X30.0000 Y-12.5073 Z-6.0000 I0.4927 J0.0000 F30.00
G2 X30.3484 Y-12.6516 Z-6.0000 I0.0000 J-0.4927 F30.00
G1 X30.3484 Y-12.6516 Z-8.0000 F30.00
G2 X30.0000 Y-13.4927 Z-8.0000 I-0.3484 J-0.3484 F30.00
G2 X29.5073 Y-13.0000 Z-8.0000 I-0.0000 J0.4927 F30.00
G2 X30.0000 Y-12.5073 Z-8.0000 I0.4927 J0.0000 F30.00
G2 X30.3484 Y-12.6516 Z-8.0000 I0.0000 J-0.4927 F30.00
G0 Z5.0000
G0 X140.3484 Y-12.6516
G0 Z3.0000
G1 X140.3484 Y-12.6516 Z-3.0000 F30.00
G2 X140.0000 Y-13.4927 Z-3.0000 I-0.3484 J-0.3484 F30.00
G2 X140.0000 Y-12.5073 Z-3.0000 I0.0000 J0.4927 F30.00
G2 X140.3484 Y-12.6516 Z-3.0000 I0.0000 J-0.4927 F30.00
G1 X140.3484 Y-12.6516 Z-6.0000 F30.00
G2 X140.0000 Y-13.4927 Z-6.0000 I-0.3484 J-0.3484 F30.00
G2 X140.0000 Y-12.5073 Z-6.0000 I0.0000 J0.4927 F30.00
G2 X140.3484 Y-12.6516 Z-6.0000 I0.0000 J-0.4927 F30.00
G1 X140.3484 Y-12.6516 Z-8.0000 F30.00
G2 X140.0000 Y-13.4927 Z-8.0000 I-0.3484 J-0.3484 F30.00
G2 X140.0000 Y-12.5073 Z-8.0000 I0.0000 J0.4927 F30.00
G2 X140.3484 Y-12.6516 Z-8.0000 I0.0000 J-0.4927 F30.00
G0 Z5.0000
G0 X13.8484 Y-156.6516
G0 Z3.0000
G1 X13.8484 Y-156.6516 Z-3.0000 F30.00
G2 X13.5000 Y-157.4927 Z-3.0000 I-0.3484 J-0.3484 F30.00
G2 X13.5000 Y-156.5073 Z-3.0000 I0.0000 J0.4927 F30.00
G2 X13.8484 Y-156.6516 Z-3.0000 I0.0000 J-0.4927 F30.00
G1 X13.8484 Y-156.6516 Z-6.0000 F30.00
G2 X13.5000 Y-157.4927 Z-6.0000 I-0.3484 J-0.3484 F30.00
G2 X13.5000 Y-156.5073 Z-6.0000 I0.0000 J0.4927 F30.00
G2 X13.8484 Y-156.6516 Z-6.0000 I0.0000 J-0.4927 F30.00
G1 X13.8484 Y-156.6516 Z-8.0000 F30.00
G2 X13.5000 Y-157.4927 Z-8.0000 I-0.3484 J-0.3484 F30.00
G2 X13.5000 Y-156.5073 Z-8.0000 I0.0000 J0.4927 F30.00
G2 X13.8484 Y-156.6516 Z-8.0000 I0.0000 J-0.4927 F30.00
G0 Z5.0000
G0 X85.3484 Y-156.6516
G0 Z3.0000
G1 X85.3484 Y-156.6516 Z-3.0000 F30.00
G2 X85.0000 Y-157.4927 Z-3.0000 I-0.3484 J-0.3484 F30.00
G2 X85.0000 Y-156.5073 Z-3.0000 I0.0000 J0.4927 F30.00
G2 X85.3484 Y-156.6516 Z-3.0000 I-0.0000 J-0.4927 F30.00
G1 X85.3484 Y-156.6516 Z-6.0000 F30.00
G2 X85.0000 Y-157.4927 Z-6.0000 I-0.3484 J-0.3484 F30.00
G2 X85.0000 Y-156.5073 Z-6.0000 I0.0000 J0.4927 F30.00
G2 X85.3484 Y-156.6516 Z-6.0000 I-0.0000 J-0.4927 F30.00
G1 X85.3484 Y-156.6516 Z-8.0000 F30.00
G2 X85.0000 Y-157.4927 Z-8.0000 I-0.3484 J-0.3484 F30.00
G2 X85.0000 Y-156.5073 Z-8.0000 I0.0000 J0.4927 F30.00
G2 X85.3484 Y-156.6516 Z-8.0000 I-0.0000 J-0.4927 F30.00
G0 Z5.0000
G0 X156.8484 Y-156.6516
G0 Z3.0000
G1 X156.8484 Y-156.6516 Z-3.0000 F30.00
G2 X156.5000 Y-157.4927 Z-3.0000 I-0.3484 J-0.3484 F30.00
G2 X156.5000 Y-156.5073 Z-3.0000 I0.0000 J0.4927 F30.00
G2 X156.8484 Y-156.6516 Z-3.0000 I0.0000 J-0.4927 F30.00
G1 X156.8484 Y-156.6516 Z-6.0000 F30.00
G2 X156.5000 Y-157.4927 Z-6.0000 I-0.3484 J-0.3484 F30.00
G2 X156.5000 Y-156.5073 Z-6.0000 I0.0000 J0.4927 F30.00
G2 X156.8484 Y-156.6516 Z-6.0000 I0.0000 J-0.4927 F30.00
G1 X156.8484 Y-156.6516 Z-8.0000 F30.00
G2 X156.5000 Y-157.4927 Z-8.0000 I-0.3484 J-0.3484 F30.00
G2 X156.5000 Y-156.5073 Z-8.0000 I0.0000 J0.4927 F30.00
G2 X156.8484 Y-156.6516 Z-8.0000 I0.0000 J-0.4927 F30.00
G0 Z5.0000
(finish operation: Pocket_wasteboard_mount_holes)
(begin postamble)
M5
G17 G90
; M2
