(Exported by FreeCAD)
(Post Processor: grbl_post)
(Output Time:2020-06-17 14:44:05.819747)
(begin preamble)
G17 G90
G21
(begin operation: T1: endmill_3mm)
(Path: T1: endmill_3mm)
(T1: endmill_3mm)
(begin toolchange)
; M6 T1
M3 S0.0000
(finish operation: T1: endmill_3mm)
(begin operation: Pocket_Shape002)
(Path: Pocket_Shape002)
(Pocket_Shape002)
G0 Z5.0000
G0 X30.3484 Y-112.6516
G0 Z3.0000
G1 X30.3484 Y-112.6516 Z-3.0000 F15.00
G2 X30.4097 Y-113.2738 Z-3.0000 I-0.3484 J-0.3484 F15.00
G2 X29.5903 Y-112.7262 Z-3.0000 I-0.4097 J0.2738 F15.00
G2 X30.3484 Y-112.6516 Z-3.0000 I0.4097 J-0.2738 F15.00
G1 X30.3484 Y-112.6516 Z-6.0000 F15.00
G2 X30.4097 Y-113.2738 Z-6.0000 I-0.3484 J-0.3484 F15.00
G2 X29.5903 Y-112.7262 Z-6.0000 I-0.4097 J0.2738 F15.00
G2 X30.3484 Y-112.6516 Z-6.0000 I0.4097 J-0.2738 F15.00
G1 X30.3484 Y-112.6516 Z-8.0000 F15.00
G2 X30.4097 Y-113.2738 Z-8.0000 I-0.3484 J-0.3484 F15.00
G2 X29.5903 Y-112.7262 Z-8.0000 I-0.4097 J0.2738 F15.00
G2 X30.3484 Y-112.6516 Z-8.0000 I0.4097 J-0.2738 F15.00
G0 Z5.0000
G0 X140.3484 Y-112.6516
G0 Z3.0000
G1 X140.3484 Y-112.6516 Z-3.0000 F15.00
G2 X140.4097 Y-113.2738 Z-3.0000 I-0.3484 J-0.3484 F15.00
G2 X139.5903 Y-112.7262 Z-3.0000 I-0.4097 J0.2738 F15.00
G2 X140.3484 Y-112.6516 Z-3.0000 I0.4097 J-0.2738 F15.00
G1 X140.3484 Y-112.6516 Z-6.0000 F15.00
G2 X140.4097 Y-113.2738 Z-6.0000 I-0.3484 J-0.3484 F15.00
G2 X139.5903 Y-112.7262 Z-6.0000 I-0.4097 J0.2738 F15.00
G2 X140.3484 Y-112.6516 Z-6.0000 I0.4097 J-0.2738 F15.00
G1 X140.3484 Y-112.6516 Z-8.0000 F15.00
G2 X140.4097 Y-113.2738 Z-8.0000 I-0.3484 J-0.3484 F15.00
G2 X139.5903 Y-112.7262 Z-8.0000 I-0.4097 J0.2738 F15.00
G2 X140.3484 Y-112.6516 Z-8.0000 I0.4097 J-0.2738 F15.00
G0 Z5.0000
(finish operation: Pocket_Shape002)
(begin postamble)
M5
G17 G90
; M2
