(Exported by FreeCAD)
(Post Processor: grbl_post)
(Output Time:2020-06-12 12:59:40.228126)
(begin preamble)
G17 G90
G21
(begin operation: T1: endmill_3mm)
(Path: T1: endmill_3mm)
(T1: endmill_3mm)
(begin toolchange)
; M6 T1
M3 S0.0000
(finish operation: T1: endmill_3mm)
(begin operation: Pocket_wheels_holes)
(Path: Pocket_wheels_holes)
(Pocket_wheels)
G0 Z5.0000
G0 X14.2031 Y157.7031
G0 Z3.0000
G1 X14.2031 Y157.7031 Z-3.0000 F30.00
G2 X13.5000 Y156.0057 Z-3.0000 I-0.7031 J-0.7031 F30.00
G2 X13.5000 Y157.9943 Z-3.0000 I0.0000 J0.9943 F30.00
G2 X14.2031 Y157.7031 Z-3.0000 I0.0000 J-0.9943 F30.00
G1 X14.2031 Y157.7031 Z-6.0000 F30.00
G2 X13.5000 Y156.0057 Z-6.0000 I-0.7031 J-0.7031 F30.00
G2 X13.5000 Y157.9943 Z-6.0000 I0.0000 J0.9943 F30.00
G2 X14.2031 Y157.7031 Z-6.0000 I0.0000 J-0.9943 F30.00
G1 X14.2031 Y157.7031 Z-8.0000 F30.00
G2 X13.5000 Y156.0057 Z-8.0000 I-0.7031 J-0.7031 F30.00
G2 X13.5000 Y157.9943 Z-8.0000 I0.0000 J0.9943 F30.00
G2 X14.2031 Y157.7031 Z-8.0000 I0.0000 J-0.9943 F30.00
G0 Z5.0000
G0 X85.7031 Y157.7031
G0 Z3.0000
G1 X85.7031 Y157.7031 Z-3.0000 F30.00
G2 X85.0000 Y156.0057 Z-3.0000 I-0.7031 J-0.7031 F30.00
G2 X85.0000 Y157.9943 Z-3.0000 I0.0000 J0.9943 F30.00
G2 X85.7031 Y157.7031 Z-3.0000 I0.0000 J-0.9943 F30.00
G1 X85.7031 Y157.7031 Z-6.0000 F30.00
G2 X85.0000 Y156.0057 Z-6.0000 I-0.7031 J-0.7031 F30.00
G2 X85.0000 Y157.9943 Z-6.0000 I0.0000 J0.9943 F30.00
G2 X85.7031 Y157.7031 Z-6.0000 I0.0000 J-0.9943 F30.00
G1 X85.7031 Y157.7031 Z-8.0000 F30.00
G2 X85.0000 Y156.0057 Z-8.0000 I-0.7031 J-0.7031 F30.00
G2 X85.0000 Y157.9943 Z-8.0000 I0.0000 J0.9943 F30.00
G2 X85.7031 Y157.7031 Z-8.0000 I0.0000 J-0.9943 F30.00
G0 Z5.0000
G0 X157.2031 Y157.7031
G0 Z3.0000
G1 X157.2031 Y157.7031 Z-3.0000 F30.00
G2 X156.5000 Y156.0057 Z-3.0000 I-0.7031 J-0.7031 F30.00
G2 X156.5000 Y157.9943 Z-3.0000 I0.0000 J0.9943 F30.00
G2 X157.2031 Y157.7031 Z-3.0000 I0.0000 J-0.9943 F30.00
G1 X157.2031 Y157.7031 Z-6.0000 F30.00
G2 X156.5000 Y156.0057 Z-6.0000 I-0.7031 J-0.7031 F30.00
G2 X156.5000 Y157.9943 Z-6.0000 I0.0000 J0.9943 F30.00
G2 X157.2031 Y157.7031 Z-6.0000 I0.0000 J-0.9943 F30.00
G1 X157.2031 Y157.7031 Z-8.0000 F30.00
G2 X156.5000 Y156.0057 Z-8.0000 I-0.7031 J-0.7031 F30.00
G2 X156.5000 Y157.9943 Z-8.0000 I0.0000 J0.9943 F30.00
G2 X157.2031 Y157.7031 Z-8.0000 I0.0000 J-0.9943 F30.00
G0 Z5.0000
G0 X157.9112 Y58.4112
G0 Z3.0000
G1 X157.9112 Y58.4112 Z-3.0000 F30.00
G2 X156.6491 Y55.0098 Z-3.0000 I-1.4112 J-1.4112 F30.00
G2 X154.5098 Y56.8509 Z-3.0000 I-0.1491 J1.9902 F30.00
G2 X156.3509 Y58.9902 Z-3.0000 I1.9902 J0.1491 F30.00
G2 X157.9112 Y58.4112 Z-3.0000 I0.1491 J-1.9902 F30.00
G1 X157.9112 Y58.4112 Z-6.0000 F30.00
G2 X156.6491 Y55.0098 Z-6.0000 I-1.4112 J-1.4112 F30.00
G2 X154.5098 Y56.8509 Z-6.0000 I-0.1491 J1.9902 F30.00
G2 X156.3509 Y58.9902 Z-6.0000 I1.9902 J0.1491 F30.00
G2 X157.9112 Y58.4112 Z-6.0000 I0.1491 J-1.9902 F30.00
G1 X157.9112 Y58.4112 Z-8.0000 F30.00
G2 X156.6491 Y55.0098 Z-8.0000 I-1.4112 J-1.4112 F30.00
G2 X154.5098 Y56.8509 Z-8.0000 I-0.1491 J1.9902 F30.00
G2 X156.3509 Y58.9902 Z-8.0000 I1.9902 J0.1491 F30.00
G2 X157.9112 Y58.4112 Z-8.0000 I0.1491 J-1.9902 F30.00
G0 Z5.0000
G0 X86.4112 Y58.4112
G0 Z3.0000
G1 X86.4112 Y58.4112 Z-3.0000 F30.00
G2 X85.1491 Y55.0098 Z-3.0000 I-1.4112 J-1.4112 F30.00
G2 X83.0098 Y56.8509 Z-3.0000 I-0.1491 J1.9902 F30.00
G2 X84.8509 Y58.9902 Z-3.0000 I1.9902 J0.1491 F30.00
G2 X86.4112 Y58.4112 Z-3.0000 I0.1491 J-1.9902 F30.00
G1 X86.4112 Y58.4112 Z-6.0000 F30.00
G2 X85.1491 Y55.0098 Z-6.0000 I-1.4112 J-1.4112 F30.00
G2 X83.0098 Y56.8509 Z-6.0000 I-0.1491 J1.9902 F30.00
G2 X84.8509 Y58.9902 Z-6.0000 I1.9902 J0.1491 F30.00
G2 X86.4112 Y58.4112 Z-6.0000 I0.1491 J-1.9902 F30.00
G1 X86.4112 Y58.4112 Z-8.0000 F30.00
G2 X85.1491 Y55.0098 Z-8.0000 I-1.4112 J-1.4112 F30.00
G2 X83.0098 Y56.8509 Z-8.0000 I-0.1491 J1.9902 F30.00
G2 X84.8509 Y58.9902 Z-8.0000 I1.9902 J0.1491 F30.00
G2 X86.4112 Y58.4112 Z-8.0000 I0.1491 J-1.9902 F30.00
G0 Z5.0000
G0 X14.9112 Y58.4112
G0 Z3.0000
G1 X14.9112 Y58.4112 Z-3.0000 F30.00
G2 X13.6491 Y55.0098 Z-3.0000 I-1.4112 J-1.4112 F30.00
G2 X11.5098 Y56.8509 Z-3.0000 I-0.1491 J1.9902 F30.00
G2 X13.3509 Y58.9902 Z-3.0000 I1.9902 J0.1491 F30.00
G2 X14.9112 Y58.4112 Z-3.0000 I0.1491 J-1.9902 F30.00
G1 X14.9112 Y58.4112 Z-6.0000 F30.00
G2 X13.6491 Y55.0098 Z-6.0000 I-1.4112 J-1.4112 F30.00
G2 X11.5098 Y56.8509 Z-6.0000 I-0.1491 J1.9902 F30.00
G2 X13.3509 Y58.9902 Z-6.0000 I1.9902 J0.1491 F30.00
G2 X14.9112 Y58.4112 Z-6.0000 I0.1491 J-1.9902 F30.00
G1 X14.9112 Y58.4112 Z-8.0000 F30.00
G2 X13.6491 Y55.0098 Z-8.0000 I-1.4112 J-1.4112 F30.00
G2 X11.5098 Y56.8509 Z-8.0000 I-0.1491 J1.9902 F30.00
G2 X13.3509 Y58.9902 Z-8.0000 I1.9902 J0.1491 F30.00
G2 X14.9112 Y58.4112 Z-8.0000 I0.1491 J-1.9902 F30.00
G0 Z5.0000
(finish operation: Pocket_wheels_holes)
(begin operation: Pocket_Verzink_holes)
(Path: Pocket_Verzink_holes)
(Pocket_3D)
G0 Z5.0000
G0 X15.9738 Y159.4733
G0 Z3.0000
G1 X15.9738 Y159.4733 Z-3.0000 F30.00
G2 X13.1171 Y153.5301 Z-3.0000 I-2.4703 J-2.4708 F30.00
G1 X13.4715 Y156.5091 Z-3.0000 F30.00
G3 X13.5308 Y157.4901 Z-3.0000 I0.0282 J0.4906 F30.00
G3 X13.0091 Y157.0294 Z-3.0000 I-0.0312 J-0.4904 F30.00
G3 X13.4715 Y156.5091 Z-3.0000 I0.4905 J-0.0297 F30.00
G1 X13.1171 Y153.5301 Z-3.0000 F30.00
G2 X12.4676 Y153.6586 Z-3.0000 I0.2045 J2.7386 F30.00
G2 X14.1553 Y160.4351 Z-3.0000 I1.0322 J3.3413 F30.00
G2 X15.9738 Y159.4733 Z-3.0000 I-0.6518 J-3.4326 F30.00
G0 Z5.0000
G0 X87.4737 Y159.4737
G0 Z3.0000
G1 X87.4737 Y159.4737 Z-3.0000 F30.00
G3 X85.2196 Y160.4901 Z-3.0000 I-2.4702 J-2.4704 F30.00
G3 X84.7804 Y153.5099 Z-3.0000 I-0.2196 J-3.4901 F30.00
G1 X84.9692 Y153.5099 Z-3.0000 F30.00
G1 X84.9692 Y156.5099 Z-3.0000 F30.00
G1 X84.9692 Y153.5099 Z-3.0000 F30.00
G3 X87.4737 Y159.4737 Z-3.0000 I0.0343 J3.4934 F30.00
G0 X87.4737 Y159.4737 Z5.0000
G0 X85.3473 Y157.3473 Z5.0000
G0 X85.3473 Y157.3473 Z0.0000
G1 X85.3473 Y157.3473 Z-3.0000 F30.00
G2 X84.9692 Y156.5099 Z-3.0000 I-0.3473 J-0.3473 F30.00
G2 X85.0308 Y157.4901 Z-3.0000 I0.0308 J0.4901 F30.00
G2 X84.9692 Y156.5099 Z-3.0000 I-0.0308 J-0.4901 F30.00
G2 X85.0308 Y157.4901 Z-3.0000 I0.0308 J0.4901 F30.00
G2 X85.3473 Y157.3473 Z-3.0000 I-0.0308 J-0.4901 F30.00
G0 Z5.0000
G0 X158.9737 Y159.4737
G0 Z3.0000
G1 X158.9737 Y159.4737 Z-3.0000 F30.00
G3 X156.7196 Y160.4901 Z-3.0000 I-2.4702 J-2.4704 F30.00
G3 X153.0099 Y157.2196 Z-3.0000 I-0.2196 J-3.4901 F30.00
G3 X156.2804 Y153.5099 Z-3.0000 I3.4901 J-0.2196 F30.00
G1 X156.4692 Y153.5099 Z-3.0000 F30.00
G1 X156.4692 Y156.5099 Z-3.0000 F30.00
G1 X156.4692 Y153.5099 Z-3.0000 F30.00
G3 X158.9737 Y159.4737 Z-3.0000 I0.0343 J3.4934 F30.00
G0 X158.9737 Y159.4737 Z5.0000
G0 X156.8473 Y157.3473 Z5.0000
G0 X156.8473 Y157.3473 Z0.0000
G1 X156.8473 Y157.3473 Z-3.0000 F30.00
G2 X156.4692 Y156.5099 Z-3.0000 I-0.3473 J-0.3473 F30.00
G2 X156.0099 Y157.0308 Z-3.0000 I0.0308 J0.4901 F30.00
G2 X156.5308 Y157.4901 Z-3.0000 I0.4901 J-0.0308 F30.00
G2 X156.4692 Y156.5099 Z-3.0000 I-0.0308 J-0.4901 F30.00
G2 X156.0099 Y157.0308 Z-3.0000 I0.0308 J0.4901 F30.00
G2 X156.5308 Y157.4901 Z-3.0000 I0.4901 J-0.0308 F30.00
G2 X156.8473 Y157.3473 Z-3.0000 I-0.0308 J-0.4901 F30.00
G0 Z5.0000
G0 X158.9673 Y59.4740
G0 Z3.0000
G1 X158.9673 Y59.4740 Z-3.0000 F30.00
G2 X159.9813 Y56.7501 Z-3.0000 I-2.4703 J-2.4703 F30.00
G1 X156.9872 Y56.9384 Z-3.0000 F30.00
G1 X159.9813 Y56.7501 Z-3.0000 F30.00
G1 X159.9695 Y56.5617 Z-3.0000 F30.00
G2 X153.0305 Y57.4383 Z-3.0000 I-3.4695 J0.4383 F30.00
G2 X158.9673 Y59.4740 Z-3.0000 I3.4664 J-0.4346 F30.00
G0 X158.9673 Y59.4740 Z5.0000
G0 X156.8468 Y57.3477 Z5.0000
G0 X156.8468 Y57.3477 Z0.0000
G1 X156.8468 Y57.3477 Z-3.0000 F30.00
G2 X156.9872 Y56.9384 Z-3.0000 I-0.3468 J-0.3477 F30.00
G2 X156.4384 Y56.5128 Z-3.0000 I-0.4872 J0.0616 F30.00
G2 X156.0128 Y57.0616 Z-3.0000 I0.0616 J0.4872 F30.00
G2 X156.5616 Y57.4872 Z-3.0000 I0.4872 J-0.0616 F30.00
G2 X156.9872 Y56.9384 Z-3.0000 I-0.0616 J-0.4872 F30.00
G2 X156.4384 Y56.5128 Z-3.0000 I-0.4872 J0.0616 F30.00
G2 X156.0128 Y57.0616 Z-3.0000 I0.0616 J0.4872 F30.00
G2 X156.8468 Y57.3477 Z-3.0000 I0.4872 J-0.0616 F30.00
G0 Z5.0000
G0 X87.4738 Y59.4733
G0 Z3.0000
G1 X87.4738 Y59.4733 Z-3.0000 F30.00
G2 X84.6171 Y53.5301 Z-3.0000 I-2.4703 J-2.4708 F30.00
G1 X84.9715 Y56.5091 Z-3.0000 F30.00
G3 X85.0308 Y57.4901 Z-3.0000 I0.0282 J0.4906 F30.00
G3 X84.5091 Y57.0294 Z-3.0000 I-0.0312 J-0.4904 F30.00
G3 X84.9715 Y56.5091 Z-3.0000 I0.4905 J-0.0297 F30.00
G1 X84.6171 Y53.5301 Z-3.0000 F30.00
G2 X83.9676 Y53.6586 Z-3.0000 I0.2045 J2.7386 F30.00
G2 X85.6553 Y60.4351 Z-3.0000 I1.0322 J3.3413 F30.00
G2 X87.4738 Y59.4733 Z-3.0000 I-0.6518 J-3.4326 F30.00
G0 Z5.0000
G0 X15.9738 Y59.4733
G0 Z3.0000
G1 X15.9738 Y59.4733 Z-3.0000 F30.00
G2 X13.0581 Y53.5371 Z-3.0000 I-2.4704 J-2.4708 F30.00
G1 X13.4125 Y56.5161 Z-3.0000 F30.00
G3 X13.5920 Y57.4824 Z-3.0000 I0.0871 J0.4837 F30.00
G3 X13.3548 Y56.5301 Z-3.0000 I-0.0924 J-0.4827 F30.00
G3 X13.6518 Y57.4671 Z-3.0000 I0.1448 J0.4696 F30.00
G3 X13.2993 Y56.5511 Z-3.0000 I-0.1522 J-0.4673 F30.00
G3 X13.4125 Y56.5161 Z-3.0000 I0.2007 J0.4489 F30.00
G1 X13.0581 Y53.5371 Z-3.0000 F30.00
G2 X12.4676 Y53.6586 Z-3.0000 I0.2051 J2.4923 F30.00
G2 X14.1553 Y60.4351 Z-3.0000 I1.0322 J3.3413 F30.00
G2 X15.9738 Y59.4733 Z-3.0000 I-0.6518 J-3.4326 F30.00
G0 Z5.0000
(finish operation: Pocket_Verzink_holes)
(begin operation: Pocket_wasteboard_mount_holes)
(Path: Pocket_wasteboard_mount_holes)
(Pocket_wasteboard_mount_holes)
G0 Z5.0000
G0 X156.8484 Y95.3484
G0 Z3.0000
G1 X156.8484 Y95.3484 Z-3.0000 F30.00
G2 X156.5000 Y94.5073 Z-3.0000 I-0.3484 J-0.3484 F30.00
G2 X156.0073 Y95.0000 Z-3.0000 I-0.0000 J0.4927 F30.00
G2 X156.5000 Y95.4927 Z-3.0000 I0.4927 J0.0000 F30.00
G2 X156.8484 Y95.3484 Z-3.0000 I0.0000 J-0.4927 F30.00
G1 X156.8484 Y95.3484 Z-6.0000 F30.00
G2 X156.5000 Y94.5073 Z-6.0000 I-0.3484 J-0.3484 F30.00
G2 X156.0073 Y95.0000 Z-6.0000 I-0.0000 J0.4927 F30.00
G2 X156.5000 Y95.4927 Z-6.0000 I0.4927 J0.0000 F30.00
G2 X156.8484 Y95.3484 Z-6.0000 I0.0000 J-0.4927 F30.00
G1 X156.8484 Y95.3484 Z-8.0000 F30.00
G2 X156.5000 Y94.5073 Z-8.0000 I-0.3484 J-0.3484 F30.00
G2 X156.0073 Y95.0000 Z-8.0000 I-0.0000 J0.4927 F30.00
G2 X156.5000 Y95.4927 Z-8.0000 I0.4927 J0.0000 F30.00
G2 X156.8484 Y95.3484 Z-8.0000 I0.0000 J-0.4927 F30.00
G0 Z5.0000
G0 X95.3484 Y97.3484
G0 Z3.0000
G1 X95.3484 Y97.3484 Z-3.0000 F30.00
G2 X95.0000 Y96.5073 Z-3.0000 I-0.3484 J-0.3484 F30.00
G2 X95.0000 Y97.4927 Z-3.0000 I0.0000 J0.4927 F30.00
G2 X95.3484 Y97.3484 Z-3.0000 I0.0000 J-0.4927 F30.00
G1 X95.3484 Y97.3484 Z-6.0000 F30.00
G2 X95.0000 Y96.5073 Z-6.0000 I-0.3484 J-0.3484 F30.00
G2 X95.0000 Y97.4927 Z-6.0000 I0.0000 J0.4927 F30.00
G2 X95.3484 Y97.3484 Z-6.0000 I0.0000 J-0.4927 F30.00
G1 X95.3484 Y97.3484 Z-8.0000 F30.00
G2 X95.0000 Y96.5073 Z-8.0000 I-0.3484 J-0.3484 F30.00
G2 X95.0000 Y97.4927 Z-8.0000 I0.0000 J0.4927 F30.00
G2 X95.3484 Y97.3484 Z-8.0000 I0.0000 J-0.4927 F30.00
G0 Z5.0000
G0 X95.3484 Y117.3484
G0 Z3.0000
G1 X95.3484 Y117.3484 Z-3.0000 F30.00
G2 X95.0000 Y116.5073 Z-3.0000 I-0.3484 J-0.3484 F30.00
G2 X95.0000 Y117.4927 Z-3.0000 I0.0000 J0.4927 F30.00
G2 X95.3484 Y117.3484 Z-3.0000 I0.0000 J-0.4927 F30.00
G1 X95.3484 Y117.3484 Z-6.0000 F30.00
G2 X95.0000 Y116.5073 Z-6.0000 I-0.3484 J-0.3484 F30.00
G2 X95.0000 Y117.4927 Z-6.0000 I0.0000 J0.4927 F30.00
G2 X95.3484 Y117.3484 Z-6.0000 I0.0000 J-0.4927 F30.00
G1 X95.3484 Y117.3484 Z-8.0000 F30.00
G2 X95.0000 Y116.5073 Z-8.0000 I-0.3484 J-0.3484 F30.00
G2 X95.0000 Y117.4927 Z-8.0000 I0.0000 J0.4927 F30.00
G2 X95.3484 Y117.3484 Z-8.0000 I0.0000 J-0.4927 F30.00
G0 Z5.0000
G0 X75.3484 Y117.3484
G0 Z3.0000
G1 X75.3484 Y117.3484 Z-3.0000 F30.00
G2 X75.0000 Y116.5073 Z-3.0000 I-0.3484 J-0.3484 F30.00
G2 X75.0000 Y117.4927 Z-3.0000 I0.0000 J0.4927 F30.00
G2 X75.3484 Y117.3484 Z-3.0000 I-0.0000 J-0.4927 F30.00
G1 X75.3484 Y117.3484 Z-6.0000 F30.00
G2 X75.0000 Y116.5073 Z-6.0000 I-0.3484 J-0.3484 F30.00
G2 X75.0000 Y117.4927 Z-6.0000 I0.0000 J0.4927 F30.00
G2 X75.3484 Y117.3484 Z-6.0000 I-0.0000 J-0.4927 F30.00
G1 X75.3484 Y117.3484 Z-8.0000 F30.00
G2 X75.0000 Y116.5073 Z-8.0000 I-0.3484 J-0.3484 F30.00
G2 X75.0000 Y117.4927 Z-8.0000 I0.0000 J0.4927 F30.00
G2 X75.3484 Y117.3484 Z-8.0000 I-0.0000 J-0.4927 F30.00
G0 Z5.0000
G0 X75.3484 Y97.3484
G0 Z3.0000
G1 X75.3484 Y97.3484 Z-3.0000 F30.00
G2 X75.0000 Y96.5073 Z-3.0000 I-0.3484 J-0.3484 F30.00
G2 X75.0000 Y97.4927 Z-3.0000 I0.0000 J0.4927 F30.00
G2 X75.3484 Y97.3484 Z-3.0000 I-0.0000 J-0.4927 F30.00
G1 X75.3484 Y97.3484 Z-6.0000 F30.00
G2 X75.0000 Y96.5073 Z-6.0000 I-0.3484 J-0.3484 F30.00
G2 X75.0000 Y97.4927 Z-6.0000 I0.0000 J0.4927 F30.00
G2 X75.3484 Y97.3484 Z-6.0000 I-0.0000 J-0.4927 F30.00
G1 X75.3484 Y97.3484 Z-8.0000 F30.00
G2 X75.0000 Y96.5073 Z-8.0000 I-0.3484 J-0.3484 F30.00
G2 X75.0000 Y97.4927 Z-8.0000 I0.0000 J0.4927 F30.00
G2 X75.3484 Y97.3484 Z-8.0000 I-0.0000 J-0.4927 F30.00
G0 Z5.0000
G0 X85.3484 Y95.3484
G0 Z3.0000
G1 X85.3484 Y95.3484 Z-3.0000 F30.00
G2 X85.0000 Y94.5073 Z-3.0000 I-0.3484 J-0.3484 F30.00
G2 X85.0000 Y95.4927 Z-3.0000 I0.0000 J0.4927 F30.00
G2 X85.3484 Y95.3484 Z-3.0000 I0.0000 J-0.4927 F30.00
G1 X85.3484 Y95.3484 Z-6.0000 F30.00
G2 X85.0000 Y94.5073 Z-6.0000 I-0.3484 J-0.3484 F30.00
G2 X85.0000 Y95.4927 Z-6.0000 I0.0000 J0.4927 F30.00
G2 X85.3484 Y95.3484 Z-6.0000 I0.0000 J-0.4927 F30.00
G1 X85.3484 Y95.3484 Z-8.0000 F30.00
G2 X85.0000 Y94.5073 Z-8.0000 I-0.3484 J-0.3484 F30.00
G2 X85.0000 Y95.4927 Z-8.0000 I0.0000 J0.4927 F30.00
G2 X85.3484 Y95.3484 Z-8.0000 I0.0000 J-0.4927 F30.00
G0 Z5.0000
G0 X13.8484 Y95.3484
G0 Z3.0000
G1 X13.8484 Y95.3484 Z-3.0000 F30.00
G2 X13.5000 Y94.5073 Z-3.0000 I-0.3484 J-0.3484 F30.00
G2 X13.0073 Y95.0000 Z-3.0000 I-0.0000 J0.4927 F30.00
G2 X13.5000 Y95.4927 Z-3.0000 I0.4927 J0.0000 F30.00
G2 X13.8484 Y95.3484 Z-3.0000 I0.0000 J-0.4927 F30.00
G1 X13.8484 Y95.3484 Z-6.0000 F30.00
G2 X13.5000 Y94.5073 Z-6.0000 I-0.3484 J-0.3484 F30.00
G2 X13.0073 Y95.0000 Z-6.0000 I-0.0000 J0.4927 F30.00
G2 X13.5000 Y95.4927 Z-6.0000 I0.4927 J0.0000 F30.00
G2 X13.8484 Y95.3484 Z-6.0000 I0.0000 J-0.4927 F30.00
G1 X13.8484 Y95.3484 Z-8.0000 F30.00
G2 X13.5000 Y94.5073 Z-8.0000 I-0.3484 J-0.3484 F30.00
G2 X13.0073 Y95.0000 Z-8.0000 I-0.0000 J0.4927 F30.00
G2 X13.5000 Y95.4927 Z-8.0000 I0.4927 J0.0000 F30.00
G2 X13.8484 Y95.3484 Z-8.0000 I0.0000 J-0.4927 F30.00
G0 Z5.0000
G0 X30.3484 Y157.3484
G0 Z3.0000
G1 X30.3484 Y157.3484 Z-3.0000 F30.00
G2 X30.0000 Y156.5073 Z-3.0000 I-0.3484 J-0.3484 F30.00
G2 X30.0000 Y157.4927 Z-3.0000 I0.0000 J0.4927 F30.00
G2 X30.3484 Y157.3484 Z-3.0000 I0.0000 J-0.4927 F30.00
G1 X30.3484 Y157.3484 Z-6.0000 F30.00
G2 X30.0000 Y156.5073 Z-6.0000 I-0.3484 J-0.3484 F30.00
G2 X30.0000 Y157.4927 Z-6.0000 I0.0000 J0.4927 F30.00
G2 X30.3484 Y157.3484 Z-6.0000 I0.0000 J-0.4927 F30.00
G1 X30.3484 Y157.3484 Z-8.0000 F30.00
G2 X30.0000 Y156.5073 Z-8.0000 I-0.3484 J-0.3484 F30.00
G2 X30.0000 Y157.4927 Z-8.0000 I0.0000 J0.4927 F30.00
G2 X30.3484 Y157.3484 Z-8.0000 I0.0000 J-0.4927 F30.00
G0 Z5.0000
G0 X140.3484 Y157.3484
G0 Z3.0000
G1 X140.3484 Y157.3484 Z-3.0000 F30.00
G2 X140.0000 Y156.5073 Z-3.0000 I-0.3484 J-0.3484 F30.00
G2 X140.0000 Y157.4927 Z-3.0000 I0.0000 J0.4927 F30.00
G2 X140.3484 Y157.3484 Z-3.0000 I0.0000 J-0.4927 F30.00
G1 X140.3484 Y157.3484 Z-6.0000 F30.00
G2 X140.0000 Y156.5073 Z-6.0000 I-0.3484 J-0.3484 F30.00
G2 X140.0000 Y157.4927 Z-6.0000 I0.0000 J0.4927 F30.00
G2 X140.3484 Y157.3484 Z-6.0000 I0.0000 J-0.4927 F30.00
G1 X140.3484 Y157.3484 Z-8.0000 F30.00
G2 X140.0000 Y156.5073 Z-8.0000 I-0.3484 J-0.3484 F30.00
G2 X140.0000 Y157.4927 Z-8.0000 I0.0000 J0.4927 F30.00
G2 X140.3484 Y157.3484 Z-8.0000 I0.0000 J-0.4927 F30.00
G0 Z5.0000
(finish operation: Pocket_wasteboard_mount_holes)
(begin postamble)
M5
G17 G90
; M2
